<?xml version="1.0" encoding="utf-8"?>
<COLLADA xmlns="http://www.collada.org/2005/11/COLLADASchema" version="1.4.1">
  <asset>
    <contributor>
      <author>Blender User</author>
      <authoring_tool>Blender 2.73.0 commit date:2015-01-20, commit time:18:16, hash:bbf09d9</authoring_tool>
    </contributor>
    <created>2015-03-10T11:37:01</created>
    <modified>2015-03-10T11:37:01</modified>
    <unit name="meter" meter="1"/>
    <up_axis>Z_UP</up_axis>
  </asset>
  <library_images>
    <image id="WoodText_jpg" name="WoodText_jpg">
      <init_from>WoodText.jpg</init_from>
    </image>
  </library_images>
  <library_effects>
    <effect id="Material-effect">
      <profile_COMMON>
        <newparam sid="WoodText_jpg-surface">
          <surface type="2D">
            <init_from>WoodText_jpg</init_from>
          </surface>
        </newparam>
        <newparam sid="WoodText_jpg-sampler">
          <sampler2D>
            <source>WoodText_jpg-surface</source>
          </sampler2D>
        </newparam>
        <technique sid="common">
          <phong>
            <emission>
              <color sid="emission">0 0 0 1</color>
            </emission>
            <ambient>
              <color sid="ambient">1 1 1 1</color>
            </ambient>
            <diffuse>
              <texture texture="WoodText_jpg-sampler" texcoord="UVMap"/>
            </diffuse>
            <specular>
              <color sid="specular">0.5 0.5 0.5 1</color>
            </specular>
            <shininess>
              <float sid="shininess">50</float>
            </shininess>
            <index_of_refraction>
              <float sid="index_of_refraction">1</float>
            </index_of_refraction>
          </phong>
        </technique>
      </profile_COMMON>
    </effect>
  </library_effects>
  <library_materials>
    <material id="Material-material" name="Material">
      <instance_effect url="#Material-effect"/>
    </material>
  </library_materials>
  <library_geometries>
    <geometry id="Cube-mesh" name="Cube">
      <mesh>
        <source id="Cube-mesh-positions">
          <float_array id="Cube-mesh-positions-array" count="48">-0.832964 -1.903897 -0.07020539 -1 -1.736861 -0.07020539 -1 1.515576 -0.07020539 -0.832964 1.682613 -0.07020539 0.832964 1.682613 -0.07020539 1 1.515576 -0.07020539 1 -1.736861 -0.07020539 0.832964 -1.903897 -0.07020539 -1 -1.736861 0.07836145 -0.832964 -1.903897 0.07836145 -0.832964 1.682613 0.07836145 -1 1.515576 0.07836145 1 1.515576 0.07836145 0.832964 1.682613 0.07836145 0.832964 -1.903897 0.07836145 1 -1.736861 0.07836145</float_array>
          <technique_common>
            <accessor source="#Cube-mesh-positions-array" count="16" stride="3">
              <param name="X" type="float"/>
              <param name="Y" type="float"/>
              <param name="Z" type="float"/>
            </accessor>
          </technique_common>
        </source>
        <source id="Cube-mesh-normals">
          <float_array id="Cube-mesh-normals-array" count="84">0 0 -1 1 0 0 0 0 1 0 1 0 0 -1 0 -0.7071068 -0.7071068 0 -0.7071068 0.7071068 0 0.7071068 0.7071068 0 0.7071068 -0.7071068 0 -1 0 0 0 0 -1 0 0 -1 0 0 -1 0 0 -1 0 0 -1 1 0 0 0 0 1 0 0 1 0 0 1 0 0 1 0 0 1 0 1 0 0 -1 0 -0.7071068 -0.7071068 0 -0.7071068 0.7071068 0 0.7071068 0.7071068 0 0.7071068 -0.7071068 0 -1 0 0</float_array>
          <technique_common>
            <accessor source="#Cube-mesh-normals-array" count="28" stride="3">
              <param name="X" type="float"/>
              <param name="Y" type="float"/>
              <param name="Z" type="float"/>
            </accessor>
          </technique_common>
        </source>
        <source id="Cube-mesh-map">
          <float_array id="Cube-mesh-map-array" count="168">0.8629753 0.9832351 0.862975 0.04457384 0.8912768 0.9048403 0.05921018 0.02668595 0.04583066 1.42375e-4 0.6178823 1.42213e-4 0.1126493 0.8790313 0.1126493 0.09529817 0.07164293 0.813576 0.6295801 0.05871015 0.6568198 0.04547864 0.6607031 0.3625824 0.04713869 0.3303367 0.02230268 0.3448932 1.42213e-4 0.03941977 0.04713869 0.3303367 0.07855063 0.3543053 0.06323218 0.3832222 0.6607031 0.3625824 0.617195 0.4009596 0.6044976 0.3751454 0.6178823 1.42213e-4 0.6568198 0.04547864 0.6295801 0.05871015 1.42213e-4 0.03941977 0.04583066 1.42375e-4 0.05921018 0.02668595 0.6044976 0.3751454 0.617195 0.4009596 0.06323218 0.3832222 0.06189858 0.9832364 0.03359681 0.9048413 0.03359669 0.1229696 0.862975 0.04457384 0.8629753 0.9832351 0.06189858 0.9832364 0.862975 0.04457384 0.8912764 0.1229682 0.8912768 0.9048403 0.06189858 0.9832364 0.06189823 0.04457515 0.862975 0.04457384 0.06189823 0.04457515 0.06189858 0.9832364 0.03359669 0.1229696 0.5999614 0.03007471 0.05921018 0.02668595 0.6178823 1.42213e-4 0.9111047 0.879031 0.9521113 0.8135751 0.9521109 0.1607528 0.1126493 0.09529817 0.1126493 0.8790313 0.9111047 0.879031 0.1126493 0.09529817 0.07164293 0.1607533 0.07164293 0.813576 0.9111047 0.879031 0.9111047 0.09529775 0.1126493 0.09529817 0.9111047 0.09529775 0.9111047 0.879031 0.9521109 0.1607528 0.6297315 0.3463401 0.6295801 0.05871015 0.6607031 0.3625824 0.03146106 0.05615669 0.04713869 0.3303367 1.42213e-4 0.03941977 0.02230268 0.3448932 0.04713869 0.3303367 0.06323218 0.3832222 0.6297315 0.3463401 0.6607031 0.3625824 0.6044976 0.3751454 0.5999614 0.03007471 0.6178823 1.42213e-4 0.6295801 0.05871015 0.03146106 0.05615669 1.42213e-4 0.03941977 0.05921018 0.02668595 0.07855063 0.3543053 0.6044976 0.3751454 0.06323218 0.3832222</float_array>
          <technique_common>
            <accessor source="#Cube-mesh-map-array" count="84" stride="2">
              <param name="S" type="float"/>
              <param name="T" type="float"/>
            </accessor>
          </technique_common>
        </source>
        <vertices id="Cube-mesh-vertices">
          <input semantic="POSITION" source="#Cube-mesh-positions"/>
        </vertices>
        <polylist material="Material-material" count="28">
          <input semantic="VERTEX" source="#Cube-mesh-vertices" offset="0"/>
          <input semantic="NORMAL" source="#Cube-mesh-normals" offset="1"/>
          <input semantic="TEXCOORD" source="#Cube-mesh-map" offset="2" set="0"/>
          <vcount>3 3 3 3 3 3 3 3 3 3 3 3 3 3 3 3 3 3 3 3 3 3 3 3 3 3 3 3 </vcount>
          <p>5 0 0 2 0 1 4 0 2 15 1 3 6 1 4 5 1 5 11 2 6 12 2 7 10 2 8 13 3 9 4 3 10 3 3 11 9 4 12 0 4 13 7 4 14 9 5 15 8 5 16 1 5 17 3 6 18 2 6 19 11 6 20 5 7 21 4 7 22 13 7 23 7 8 24 6 8 25 15 8 26 11 9 27 2 9 28 1 9 29 6 10 30 7 10 31 0 10 32 2 11 33 5 11 34 6 11 35 2 12 36 3 12 37 4 12 38 6 13 39 1 13 40 2 13 41 1 14 42 6 14 43 0 14 44 12 15 45 15 15 46 5 15 47 8 16 48 9 16 49 14 16 50 12 17 51 11 17 52 8 17 53 12 18 54 13 18 55 10 18 56 8 19 57 15 19 58 12 19 59 15 20 60 8 20 61 14 20 62 10 21 63 13 21 64 3 21 65 14 22 66 9 22 67 7 22 68 0 23 69 9 23 70 1 23 71 10 24 72 3 24 73 11 24 74 12 25 75 5 25 76 13 25 77 14 26 78 7 26 79 15 26 80 8 27 81 11 27 82 1 27 83</p>
        </polylist>
      </mesh>
    </geometry>
  </library_geometries>
  <library_controllers/>
  <library_visual_scenes>
    <visual_scene id="Scene" name="Scene">
      <node id="Cube" name="Cube" type="NODE">
        <matrix sid="transform">0.1339738 0 0 0 0 0.1339738 0 0 0 0 0.1339738 0 0 0 0 1</matrix>
        <instance_geometry url="#Cube-mesh">
          <bind_material>
            <technique_common>
              <instance_material symbol="Material-material" target="#Material-material">
                <bind_vertex_input semantic="UVMap" input_semantic="TEXCOORD" input_set="0"/>
              </instance_material>
            </technique_common>
          </bind_material>
        </instance_geometry>
      </node>
    </visual_scene>
  </library_visual_scenes>
  <scene>
    <instance_visual_scene url="#Scene"/>
  </scene>
</COLLADA>
