<?xml version="1.0" encoding="utf-8"?>
<COLLADA xmlns="http://www.collada.org/2005/11/COLLADASchema" version="1.4.1">
  <asset>
    <contributor>
      <author>Blender User</author>
      <authoring_tool>Blender 2.73.0 commit date:2015-01-20, commit time:18:16, hash:bbf09d9</authoring_tool>
    </contributor>
    <created>2015-03-16T11:32:41</created>
    <modified>2015-03-16T11:32:41</modified>
    <unit name="meter" meter="1"/>
    <up_axis>Z_UP</up_axis>
  </asset>
  <library_images/>
  <library_effects>
    <effect id="Bowl-effect">
      <profile_COMMON>
        <technique sid="common">
          <phong>
            <emission>
              <color sid="emission">0 0 0 1</color>
            </emission>
            <ambient>
              <color sid="ambient">0 0 0 1</color>
            </ambient>
            <diffuse>
              <color sid="diffuse">0.340099 0.4138658 0.3358903 1</color>
            </diffuse>
            <specular>
              <color sid="specular">0.5 0.5 0.5 1</color>
            </specular>
            <shininess>
              <float sid="shininess">50</float>
            </shininess>
            <index_of_refraction>
              <float sid="index_of_refraction">1</float>
            </index_of_refraction>
          </phong>
        </technique>
      </profile_COMMON>
    </effect>
  </library_effects>
  <library_materials>
    <material id="Bowl-material" name="Bowl">
      <instance_effect url="#Bowl-effect"/>
    </material>
  </library_materials>
  <library_geometries>
    <geometry id="Sphere-mesh" name="Sphere">
      <mesh>
        <source id="Sphere-mesh-positions">
          <float_array id="Sphere-mesh-positions-array" count="1578">-0.09795701 0 0.05629467 -0.09607475 0 0.04458713 -0.09050047 0 0.0333296 -0.08144819 0 0.02295452 -0.06926596 0 0.01386076 -0.05442184 0 0.006397604 -0.03748631 0 2.16644e-5 0.0115571 0.002298831 0.00628221 -0.05442184 -0.08144837 0.05629467 -0.09607475 0.01911056 0.05629467 -0.09422874 0.01874339 0.04458713 -0.0887615 0.01765584 0.0333296 -0.07988321 0.01588988 0.02295452 -0.06793504 0.0135132 0.01386076 -0.05337613 0.01061731 0.006397604 -0.03676605 0.007313311 2.16644e-5 -0.03748631 -0.09050059 0.05629467 -0.09050041 0.03748667 0.05629467 -0.0887615 0.0367664 0.04458713 -0.08361148 0.03463321 0.0333296 -0.07524836 0.03116905 0.02295452 -0.06399339 0.02650713 0.01386076 -0.0502792 0.02082651 0.006397604 -0.0346328 0.01434558 2.16644e-5 -0.0191102 -0.09607493 0.05629467 -0.08144819 0.05442219 0.05629467 -0.07988321 0.05337649 0.04458713 -0.07524836 0.05027955 0.0333296 -0.06772166 0.04525041 0.02295452 -0.05759251 0.03848236 0.01386076 -0.04525005 0.0302354 0.006397604 -0.03116869 0.02082651 2.16644e-5 2.66082e-7 -0.09795719 0.05629467 -0.06926596 0.06926631 0.05629467 -0.06793504 0.0679354 0.04458713 -0.06399339 0.06399375 0.0333296 -0.05759251 0.05759286 0.02295452 -0.04897832 0.04897868 0.01386076 -0.03848195 0.03848236 0.006397604 -0.02650678 0.02650713 2.16644e-5 0.01911073 -0.09607493 0.05629467 -0.05442184 0.08144855 0.05629467 -0.05337613 0.07988357 0.04458713 -0.0502792 0.07524871 0.0333296 -0.04525005 0.06772202 0.02295452 -0.03848195 0.05759286 0.01386076 -0.03023505 0.04525041 0.006397604 -0.02082616 0.03116905 2.16644e-5 0.03748685 -0.09050059 0.05629467 -0.03748631 0.09050083 0.05629467 -0.03676599 0.08876186 0.04458713 -0.0346328 0.08361184 0.0333296 -0.03116869 0.07524871 0.02295452 -0.02650672 0.06399375 0.01386076 -0.02082616 0.05027955 0.006397604 -0.01434522 0.03463321 2.16644e-5 0.05442237 -0.08144843 0.05629467 -0.0191102 0.09607511 0.05629467 -0.01874297 0.09422904 0.04458713 -0.01765555 0.08876186 0.0333296 -0.01588952 0.07988357 0.02295452 -0.01351284 0.0679354 0.01386076 -0.01061689 0.05337649 0.006397604 -0.007312953 0.0367664 2.16644e-5 2.89437e-7 0.09795731 0.05629467 2.90897e-7 0.09607511 0.04458713 2.7484e-7 0.09050077 0.0333296 2.85058e-7 0.08144855 0.02295452 2.83599e-7 0.06926631 0.01386076 2.85788e-7 0.05442219 0.006397604 2.82139e-7 0.03748667 2.16644e-5 0.06926649 -0.0692662 0.05629467 0.01911079 0.09607511 0.05629467 0.01874357 0.09422904 0.04458713 0.01765608 0.08876186 0.0333296 0.01589006 0.07988357 0.02295452 0.01351344 0.0679354 0.01386076 0.01061749 0.05337649 0.006397604 0.007313549 0.0367664 2.16644e-5 0.08144873 -0.05442208 0.05629467 0.03748691 0.09050077 0.05629467 0.03676658 0.0887618 0.04458713 0.03463339 0.08361184 0.0333296 0.03116929 0.07524865 0.02295452 0.02650731 0.06399375 0.01386076 0.02082669 0.05027955 0.006397604 0.01434576 0.03463321 2.16644e-5 0.09050095 -0.03748655 0.05629467 0.05442243 0.08144855 0.05629467 0.05337667 0.07988351 0.04458713 0.05027973 0.07524865 0.0333296 0.04525065 0.06772202 0.02295452 0.03848254 0.05759286 0.01386076 0.03023558 0.04525041 0.006397604 0.02082669 0.03116905 2.16644e-5 0.09607529 -0.01911044 0.05629467 0.06926649 0.06926631 0.05629467 0.06793558 0.06793534 0.04458713 0.06399393 0.06399375 0.0333296 0.05759304 0.05759286 0.02295452 0.04897892 0.04897868 0.01386076 0.03848254 0.0384823 0.006397604 0.02650731 0.02650707 2.16644e-5 0.09795755 0 0.05629467 0.08144873 0.05442219 0.05629467 0.07988375 0.05337649 0.04458713 0.07524889 0.05027955 0.0333296 0.0677222 0.04525041 0.02295452 0.05759304 0.0384823 0.01386076 0.04525065 0.03023535 0.006397604 0.03116923 0.02082651 2.16644e-5 0.09607529 0.01911056 0.05629467 0.09050101 0.03748667 0.05629467 0.08876204 0.03676635 0.04458713 0.08361202 0.03463321 0.0333296 0.07524883 0.03116905 0.02295452 0.06399393 0.02650707 0.01386076 0.05027973 0.02082651 0.006397604 0.03463339 0.01434558 2.16644e-5 0.01284152 0.002554357 0.00628221 0.09422922 0.01874333 0.04458713 0.08876204 0.01765584 0.0333296 0.07988375 0.01588988 0.02295452 0.06793558 0.0135132 0.01386076 0.05337667 0.01061725 0.006397604 0.03676658 0.007313311 2.16644e-5 0.09607529 0 0.04458713 0.09050095 0 0.0333296 0.08144873 0 0.02295452 0.06926649 0 0.01386076 0.05442237 0 0.006397604 0.03748691 0 2.16644e-5 0.09422922 -0.01874321 0.04458713 0.08876204 -0.01765573 0.0333296 0.07988369 -0.0158897 0.02295452 0.06793558 -0.01351308 0.01386076 0.05337667 -0.01061713 0.006397604 0.03676658 -0.007313191 2.16644e-5 0.08876204 -0.03676623 0.04458713 0.08361202 -0.03463304 0.0333296 0.07524883 -0.03116887 0.02295452 0.06399393 -0.02650696 0.01386076 0.05027973 -0.02082633 0.006397604 0.03463339 -0.0143454 2.16644e-5 0.07988369 -0.05337631 0.04458713 0.07524883 -0.05027937 0.0333296 0.06772214 -0.04525023 0.02295452 0.05759304 -0.03848218 0.01386076 0.04525059 -0.03023523 0.006397604 0.03116923 -0.02082633 2.16644e-5 0.06793552 -0.06793522 0.04458713 0.06399393 -0.06399357 0.0333296 0.05759298 -0.05759268 0.02295452 0.04897892 -0.0489785 0.01386076 0.03848254 -0.03848218 0.006397604 0.02650731 -0.02650696 2.16644e-5 0.05337667 -0.07988333 0.04458713 0.05027973 -0.07524847 0.0333296 0.04525059 -0.06772184 0.02295452 0.03848254 -0.05759268 0.01386076 0.03023558 -0.04525023 0.006397604 0.02082669 -0.03116887 2.16644e-5 0.03676658 -0.08876162 0.04458713 0.03463339 -0.08361166 0.0333296 0.03116923 -0.07524847 0.02295452 0.02650731 -0.06399357 0.01386076 0.02082669 -0.05027937 0.006397604 0.01434576 -0.03463304 2.16644e-5 0.01874357 -0.09422886 0.04458713 0.01765608 -0.08876168 0.0333296 0.01589006 -0.07988333 0.02295452 0.01351344 -0.06793522 0.01386076 0.01061749 -0.05337631 0.006397604 0.007313549 -0.03676623 2.16644e-5 2.61703e-7 -0.09607487 0.04458713 2.83599e-7 -0.09050059 0.0333296 2.66082e-7 -0.08144837 0.02295452 2.70461e-7 -0.06926614 0.01386076 2.7776e-7 -0.05442202 0.006397604 2.7703e-7 -0.03748649 2.16644e-5 -0.01874303 -0.09422886 0.04458713 -0.01765549 -0.08876168 0.0333296 -0.01588952 -0.07988333 0.02295452 -0.01351284 -0.06793522 0.01386076 -0.01061689 -0.05337631 0.006397604 -0.007312953 -0.03676623 2.16644e-5 -0.03676599 -0.08876162 0.04458713 -0.0346328 -0.08361166 0.0333296 -0.03116869 -0.07524847 0.02295452 -0.02650678 -0.06399357 0.01386076 -0.02082616 -0.05027937 0.006397604 -0.01434522 -0.03463298 2.16644e-5 -0.05337613 -0.07988333 0.04458713 -0.0502792 -0.07524847 0.0333296 -0.04525005 -0.06772184 0.02295452 -0.03848195 -0.05759268 0.01386076 -0.03023499 -0.04525023 0.006397604 -0.02082616 -0.03116887 2.16644e-5 -0.06926596 -0.06926608 0.05629467 -0.06793498 -0.06793516 0.04458713 -0.06399339 -0.06399357 0.0333296 -0.05759245 -0.05759263 0.02295452 -0.04897832 -0.0489785 0.01386076 -0.03848195 -0.03848212 0.006397604 -0.02650672 -0.02650696 2.16644e-5 -0.08144819 -0.05442202 0.05629467 -0.07988315 -0.05337625 0.04458713 -0.0752483 -0.05027937 0.0333296 -0.0677216 -0.04525023 0.02295452 -0.05759245 -0.03848212 0.01386076 -0.04525005 -0.03023523 0.006397604 -0.03116869 -0.02082633 2.16644e-5 -0.09050041 -0.03748649 0.05629467 -0.08876144 -0.03676617 0.04458713 -0.08361148 -0.03463304 0.0333296 -0.0752483 -0.03116881 0.02295452 -0.06399339 -0.02650696 0.01386076 -0.0502792 -0.02082633 0.006397604 -0.0346328 -0.0143454 2.16644e-5 -0.0960747 -0.01911038 0.05629467 -0.09422862 -0.01874315 0.04458713 -0.08876144 -0.01765573 0.0333296 -0.07988315 -0.0158897 0.02295452 -0.06793498 -0.01351308 0.01386076 -0.05337607 -0.01061713 0.006397604 -0.03676599 -0.007313132 2.16644e-5 -0.007721722 -0.01155674 0.00628221 -0.01914077 -0.02864652 0.00628221 -0.02778822 -0.04158842 0.007649242 -0.03536784 -0.05293202 0.01450842 -0.04158818 -0.06224149 0.0228663 -0.04621034 -0.06915909 0.03240174 -0.04905664 -0.07341885 0.04274833 -0.05001777 -0.07485723 0.0535084 -0.005318701 -0.01284116 0.00628221 -0.0131843 -0.03183037 0.00628221 -0.01914077 -0.04621058 0.007649242 -0.02436167 -0.05881494 0.01450842 -0.02864634 -0.06915903 0.0228663 -0.03183019 -0.07684546 0.03240174 -0.03379076 -0.08157867 0.04274833 -0.03445273 -0.08317691 0.0535084 -0.002711296 -0.01363211 0.00628221 -0.006721138 -0.03379094 0.00628221 -0.009757757 -0.04905688 0.007649242 -0.01241934 -0.06243759 0.01450842 -0.01460367 -0.07341885 0.0228663 -0.0162267 -0.08157873 0.03240174 -0.01722621 -0.08660346 0.04274833 -0.0175637 -0.08830016 0.0535084 2.82675e-7 -0.0138992 0.00628221 2.76964e-7 -0.03445291 0.00628221 2.77635e-7 -0.05001795 0.007649242 2.70927e-7 -0.06366086 0.01450842 2.66902e-7 -0.07485723 0.0228663 2.83001e-7 -0.08317691 0.03240174 2.62878e-7 -0.08830016 0.04274833 2.66902e-7 -0.09003007 0.0535084 0.002711892 -0.01363211 0.00628221 0.006721675 -0.03379094 0.00628221 0.009758293 -0.04905688 0.007649242 0.01241987 -0.06243759 0.01450842 0.01460415 -0.07341885 0.0228663 0.0162273 -0.08157873 0.03240174 0.01722675 -0.08660346 0.04274833 0.01756423 -0.08830016 0.0535084 0.005319297 -0.01284116 0.00628221 0.01318484 -0.03183037 0.00628221 0.01914131 -0.04621058 0.007649242 0.02436226 -0.05881494 0.01450842 0.02864688 -0.06915909 0.0228663 0.03183072 -0.07684546 0.03240174 0.0337913 -0.08157867 0.04274833 0.03445327 -0.08317691 0.0535084 0.007722318 -0.01155674 0.00628221 0.01914131 -0.02864658 0.00628221 0.02778881 -0.04158842 0.007649242 0.03536838 -0.05293202 0.01450842 0.04158872 -0.06224149 0.0228663 0.04621094 -0.06915909 0.03240174 0.04905724 -0.07341891 0.04274833 0.05001831 -0.07485723 0.0535084 0.009828567 -0.009828209 0.00628221 0.02436226 -0.0243619 0.00628221 0.03536838 -0.03536802 0.007649242 0.04501533 -0.04501497 0.01450842 0.05293238 -0.05293202 0.0228663 0.0588153 -0.05881494 0.03240174 0.06243795 -0.06243759 0.04274833 0.06366121 -0.06366086 0.0535084 0.0115571 -0.0077219 0.00628221 0.02864694 -0.01914101 0.00628221 0.04158878 -0.02778846 0.007649242 0.05293238 -0.03536802 0.01450842 0.06224185 -0.04158842 0.0228663 0.06915944 -0.04621058 0.03240174 0.07341921 -0.04905688 0.04274833 0.07485759 -0.05001801 0.0535084 0.01284152 -0.005318939 0.00628221 0.03183072 -0.01318448 0.00628221 0.04621094 -0.01914101 0.007649242 0.0588153 -0.0243619 0.01450842 0.06915938 -0.02864658 0.0228663 0.07684582 -0.03183037 0.03240174 0.08157908 -0.03379094 0.04274833 0.08317726 -0.03445297 0.0535084 0.01363247 -0.002711534 0.00628221 0.0337913 -0.006721377 0.00628221 0.04905724 -0.009757936 0.007649242 0.06243801 -0.01241952 0.01450842 0.07341921 -0.01460385 0.0228663 0.08157908 -0.01622694 0.03240174 0.08660382 -0.01722645 0.04274833 0.08830052 -0.01756393 0.0535084 0.01389956 0 0.00628221 0.03445333 0 0.00628221 0.05001837 0 0.007649242 0.06366121 0 0.01450842 0.07485759 0 0.0228663 0.08317726 0 0.03240174 0.08830052 0 0.04274833 0.09003043 0 0.0535084 0.01363247 0.002711653 0.00628221 0.0337913 0.006721496 0.00628221 0.04905724 0.009758114 0.007649242 0.06243801 0.0124197 0.01450842 0.07341921 0.01460397 0.0228663 0.08157908 0.01622706 0.03240174 0.08660382 0.01722657 0.04274833 0.08830058 0.01756405 0.0535084 0.01284152 0.005319058 0.00628221 0.03183072 0.01318466 0.00628221 0.04621094 0.01914113 0.007649242 0.0588153 0.02436202 0.01450842 0.06915944 0.0286467 0.0228663 0.07684582 0.03183054 0.03240174 0.08157908 0.03379112 0.04274833 0.08317732 0.03445309 0.0535084 0.0115571 0.007722079 0.00628221 0.02864694 0.01914113 0.00628221 0.04158878 0.02778863 0.007649242 0.05293238 0.0353682 0.01450842 0.06224185 0.04158854 0.0228663 0.06915944 0.04621076 0.03240174 0.07341921 0.04905706 0.04274833 0.07485765 0.05001813 0.0535084 0.009828567 0.009828329 0.00628221 0.02436226 0.02436202 0.00628221 0.03536838 0.0353682 0.007649242 0.04501533 0.04501515 0.01450842 0.05293238 0.0529322 0.0228663 0.0588153 0.05881512 0.03240174 0.06243801 0.06243777 0.04274833 0.06366121 0.06366097 0.0535084 0.007722318 0.01155692 0.00628221 0.01914137 0.0286467 0.00628221 0.02778881 0.0415886 0.007649242 0.03536838 0.0529322 0.01450842 0.04158878 0.06224167 0.0228663 0.04621094 0.06915926 0.03240174 0.04905724 0.07341903 0.04274833 0.05001837 0.07485741 0.0535084 0.005319297 0.01284134 0.00628221 0.0131849 0.03183054 0.00628221 0.01914137 0.04621076 0.007649242 0.02436226 0.05881512 0.01450842 0.02864694 0.06915926 0.0228663 0.03183072 0.07684564 0.03240174 0.0337913 0.08157885 0.04274833 0.03445333 0.08317708 0.0535084 0.002711892 0.01363229 0.00628221 0.006721735 0.03379112 0.00628221 0.009758293 0.04905706 0.007649242 0.01241987 0.06243777 0.01450842 0.01460421 0.07341903 0.0228663 0.0162273 0.08157885 0.03240174 0.01722681 0.08660364 0.04274833 0.01756429 0.08830034 0.0535084 2.82144e-7 0.01389938 0.00628221 2.81659e-7 0.03445309 0.00628221 2.85013e-7 0.05001813 0.007649242 2.83001e-7 0.06366097 0.01450842 2.84343e-7 0.07485741 0.0228663 2.74952e-7 0.08317708 0.03240174 2.89709e-7 0.08830034 0.04274833 2.88367e-7 0.09003025 0.0535084 -0.002711296 0.01363229 0.00628221 -0.006721138 0.03379112 0.00628221 -0.009757757 0.04905706 0.007649242 -0.01241934 0.06243777 0.01450842 -0.01460361 0.07341903 0.0228663 -0.01622676 0.08157885 0.03240174 -0.01722621 0.08660364 0.04274833 -0.0175637 0.08830034 0.0535084 -0.005318701 0.01284134 0.00628221 -0.0131843 0.03183054 0.00628221 -0.01914077 0.04621076 0.007649242 -0.02436167 0.05881512 0.01450842 -0.02864634 0.06915926 0.0228663 -0.03183019 0.07684564 0.03240174 -0.0337907 0.08157885 0.04274833 -0.03445273 0.08317708 0.0535084 -0.007721722 0.01155692 0.00628221 -0.01914077 0.0286467 0.00628221 -0.02778828 0.0415886 0.007649242 -0.03536784 0.0529322 0.01450842 -0.04158824 0.06224167 0.0228663 -0.0462104 0.0691592 0.03240174 -0.0490567 0.07341903 0.04274833 -0.05001777 0.07485741 0.0535084 -0.009827971 0.009828329 0.00628221 -0.02436167 0.02436202 0.00628221 -0.03536784 0.0353682 0.007649242 -0.04501479 0.04501515 0.01450842 -0.05293184 0.0529322 0.0228663 -0.05881476 0.05881512 0.03240174 -0.06243741 0.06243777 0.04274833 -0.06366062 0.06366103 0.0535084 -0.01155656 0.007722079 0.00628221 -0.02864634 0.01914113 0.00628221 -0.04158824 0.02778863 0.007649242 -0.05293184 0.0353682 0.01450842 -0.06224131 0.0415886 0.0228663 -0.06915891 0.04621076 0.03240174 -0.07341867 0.04905706 0.04274833 -0.07485705 0.05001813 0.0535084 -0.01284098 0.005319058 0.00628221 -0.03183019 0.01318466 0.00628221 -0.0462104 0.01914113 0.007649242 -0.05881476 0.02436202 0.01450842 -0.06915891 0.0286467 0.0228663 -0.07684528 0.03183054 0.03240174 -0.08157855 0.03379112 0.04274833 -0.08317679 0.03445309 0.0535084 -0.01363193 0.002711653 0.00628221 -0.03379076 0.006721496 0.00628221 -0.0490567 0.009758114 0.007649242 -0.06243741 0.0124197 0.01450842 -0.07341873 0.01460403 0.0228663 -0.08157855 0.01622706 0.03240174 -0.08660334 0.01722657 0.04274833 -0.08829998 0.01756405 0.0535084 -0.01389902 0 0.00628221 -0.03445273 0 0.00628221 -0.05001777 0 0.007649242 -0.06366068 0 0.01450842 -0.07485711 0 0.0228663 -0.08317679 0 0.03240174 -0.08830004 0 0.04274833 -0.09002989 0 0.0535084 -0.06366062 -0.06366086 0.0535084 -0.06243741 -0.06243753 0.04274833 -0.0588147 -0.05881494 0.03240174 -0.05293184 -0.05293202 0.0228663 -0.04501479 -0.04501497 0.01450842 -0.03536778 -0.03536802 0.007649242 -0.02436167 -0.02436184 0.00628221 -0.009827971 -0.009828209 0.00628221 -0.07485705 -0.05001795 0.0535084 -0.07341867 -0.04905682 0.04274833 -0.06915891 -0.04621058 0.03240174 -0.06224131 -0.04158836 0.0228663 -0.05293184 -0.03536802 0.01450842 -0.04158818 -0.02778846 0.007649242 -0.02864634 -0.01914095 0.00628221 -0.01155656 -0.0077219 0.00628221 -0.08317673 -0.03445291 0.0535084 -0.08157843 -0.03379088 0.04274833 -0.07684528 -0.03183037 0.03240174 -0.06915885 -0.02864652 0.0228663 -0.05881476 -0.02436184 0.01450842 -0.04621034 -0.01914095 0.007649242 -0.03183019 -0.01318448 0.00628221 -0.01284098 -0.005318939 0.00628221 -0.08829993 -0.01756387 0.0535084 -0.08660322 -0.01722639 0.04274833 -0.08157849 -0.01622694 0.03240174 -0.07341867 -0.01460379 0.0228663 -0.06243741 -0.01241952 0.01450842 -0.04905664 -0.009757936 0.007649242 -0.0337907 -0.006721317 0.00628221 -0.01363193 -0.002711534 0.00628221 -0.02223145 0 2.16644e-5 -0.02180427 0.004337251 2.16644e-5 -0.02053916 0.008507788 2.16644e-5 -0.01848471 0.01235133 2.16644e-5 -0.01571995 0.0157203 2.16644e-5 -0.01235097 0.01848506 2.16644e-5 -0.00850743 0.02053952 2.16644e-5 -0.004336893 0.02180463 2.16644e-5 2.81295e-7 0.02223181 2.16644e-5 0.00433743 0.02180463 2.16644e-5 0.008507966 0.02053952 2.16644e-5 0.01235157 0.01848506 2.16644e-5 0.01572048 0.0157203 2.16644e-5 0.0184853 0.01235133 2.16644e-5 0.0205397 0.008507788 2.16644e-5 0.0218048 0.004337251 2.16644e-5 0.02223199 0 2.16644e-5 0.0218048 -0.004337072 2.16644e-5 0.0205397 -0.008507609 2.16644e-5 0.01848524 -0.01235121 2.16644e-5 0.01572048 -0.01572012 2.16644e-5 0.01235157 -0.01848489 2.16644e-5 0.008507966 -0.02053934 2.16644e-5 0.00433743 -0.02180445 2.16644e-5 2.78265e-7 -0.02223163 2.16644e-5 -0.004336893 -0.02180445 2.16644e-5 -0.00850743 -0.02053934 2.16644e-5 -0.01235097 -0.01848489 2.16644e-5 -0.01571989 -0.01572012 2.16644e-5 -0.01848471 -0.01235121 2.16644e-5 -0.02053916 -0.008507609 2.16644e-5 -0.02180427 -0.004337072 2.16644e-5 2.80203e-7 0 2.16644e-5 0.009828567 0.001955032 0.00628221 0.007722318 0.001536071 0.00628221 0.005319297 0.001058101 0.00628221 0.002711892 5.39456e-4 0.00628221 2.92785e-7 0 0.00628221 -0.002711296 -5.39291e-4 0.00628221 -0.005318701 -0.001057922 0.00628221 -0.007721722 -0.001535892 0.00628221 -0.009827971 -0.001954853 0.00628221 -0.01155656 -0.002298712 0.00628221 -0.01284098 -0.002554178 0.00628221</float_array>
          <technique_common>
            <accessor source="#Sphere-mesh-positions-array" count="526" stride="3">
              <param name="X" type="float"/>
              <param name="Y" type="float"/>
              <param name="Z" type="float"/>
            </accessor>
          </technique_common>
        </source>
        <source id="Sphere-mesh-normals">
          <float_array id="Sphere-mesh-normals-array" count="1578">-0.9533067 0 -0.3019806 -0.6707663 0 0.7416303 -0.6578875 0.1308633 0.7416303 -0.4040651 0 -0.9147008 -0.3963134 0.07882928 -0.9147008 -0.1861934 0.03701895 -0.981811 -0.5296182 0 -0.8482009 -0.6831874 0 -0.7302164 -0.6700644 0.1332743 -0.7302164 -0.9349651 0.1859798 -0.3019806 -0.8181097 0.1627247 -0.5515 -0.5194556 0.1033051 -0.8482009 -0.8341624 0 -0.5515 -0.4893032 0.2026734 -0.8482009 -0.7706534 0.3191931 -0.5515 -0.6311838 0.2614216 -0.7302164 -0.6197088 0.2566912 0.7416303 -0.3733024 0.1546373 -0.9147008 -0.8807337 0.3647878 -0.3019806 -0.4403821 0.2942289 -0.8482009 -0.3359783 0.2244941 -0.9147008 -0.6935636 0.4634236 -0.5515 -0.5577258 0.3726615 0.7416303 -0.7926267 0.5296182 -0.3019806 -0.1578417 0.1054719 -0.981811 -0.568041 0.3795587 -0.7302164 -0.3744926 0.3744926 -0.8482009 -0.5898312 0.5898312 -0.5515 -0.4742882 0.4742882 0.7416303 -0.6740623 0.6740928 -0.3019806 -0.2857143 0.2857143 -0.9147008 -0.1342204 0.1342204 -0.981811 -0.4830775 0.4830775 -0.7302164 -0.2942289 0.4403821 -0.8482009 -0.4634236 0.6935636 -0.5515 -0.3726615 0.5577258 0.7416303 -0.5296182 0.7926267 -0.3019806 -0.2244941 0.3359783 -0.9147008 -0.1054719 0.1578417 -0.981811 -0.3795587 0.568041 -0.7302164 -0.2026734 0.4893032 -0.8482009 -0.3191931 0.7706534 -0.5515 -0.2566912 0.6197088 0.7416303 -0.1546373 0.3733024 -0.9147008 -0.2614216 0.6311838 -0.7302164 -0.3647878 0.8807337 -0.3019806 -0.1033051 0.5194556 -0.8482009 -0.1627247 0.8181097 -0.5515 -0.1308633 0.6578875 0.7416303 -0.07882928 0.3963134 -0.9147008 -0.03701895 0.1861934 -0.981811 -0.1332743 0.6700644 -0.7302164 -0.1859798 0.9349651 -0.3019806 0 0.5296182 -0.8482009 0 0.4040651 -0.9147008 0 0.8341624 -0.5515 0 0.6707663 0.7416303 0 0.6831874 -0.7302164 0 0.9533067 -0.3019806 0.1033051 0.5194556 -0.8482009 0.1627247 0.8181097 -0.5515 0.1308633 0.6578875 0.7416303 0.1859798 0.9349651 -0.3019806 0.07882928 0.3963134 -0.9147008 0.03701895 0.1861934 -0.981811 0.1332743 0.6700644 -0.7302164 0.2026734 0.4893032 -0.8482009 0.3191931 0.7706534 -0.5515 0.2566912 0.6197088 0.7416303 0.1546373 0.3733024 -0.9147008 0.2614216 0.6311838 -0.7302164 0.3647878 0.8807337 -0.3019806 0.2942289 0.4403821 -0.8482009 0.4634236 0.6935636 -0.5515 0.3726615 0.5577258 0.7416303 0.07263404 0.1753898 -0.981811 0.2244941 0.3359783 -0.9147008 0.3795587 0.568041 -0.7302164 0.5296182 0.7926267 -0.3019806 0.3744926 0.3744926 -0.8482009 0.5898312 0.5898312 -0.5515 0.4742882 0.4742882 0.7416303 0.1054719 0.1578417 -0.981811 0.2857143 0.2857143 -0.9147008 0.4830775 0.4830775 -0.7302164 0.6740623 0.6740623 -0.3019806 0.4403821 0.2942289 -0.8482009 0.3359783 0.2244941 -0.9147008 0.6935636 0.4634236 -0.5515 0.5577258 0.3726615 0.7416303 0.1578417 0.1054719 -0.981811 0.568041 0.3795587 -0.7302164 0.7926267 0.5296182 -0.3019806 0.4893032 0.2026734 -0.8482009 0.7706534 0.3191931 -0.5515 0.6197088 0.2566912 0.7416303 0.3733024 0.1546373 -0.9147008 0.1753898 0.07263404 -0.981811 0.6311838 0.2614216 -0.7302164 0.8807337 0.3647878 -0.3019806 0.5194556 0.1033051 -0.8482009 0.8181097 0.1627247 -0.5515 0.3963134 0.07882928 -0.9147008 0.1861934 0.03701895 -0.981811 0.6700644 0.1332743 -0.7302164 0.9349651 0.1859798 -0.3019806 0.5296182 0 -0.8482009 0.4040651 0 -0.9147008 0.8341624 0 -0.5515 0.6831874 0 -0.7302164 0.9533067 0 -0.3019806 0.5194556 -0.1033051 -0.8482009 0.8181097 -0.1627247 -0.5515 0.1898251 0 -0.981811 0.3963134 -0.07882928 -0.9147008 0.6700644 -0.1332743 -0.7302164 0.9349651 -0.1859798 -0.3019806 0.4893032 -0.2026734 -0.8482009 0.3733024 -0.1546373 -0.9147008 0.7706534 -0.3191931 -0.5515 0.1861934 -0.03701895 -0.981811 0.6311838 -0.2614216 -0.7302164 0.8807337 -0.3647878 -0.3019806 0.4403821 -0.2942289 -0.8482009 0.6935636 -0.4634236 -0.5515 0.1753898 -0.07263404 -0.981811 0.3359783 -0.2244941 -0.9147008 0.568041 -0.3795587 -0.7302164 0.7926267 -0.5296182 -0.3019806 0.3744926 -0.3744926 -0.8482009 0.2857143 -0.2857143 -0.9147008 0.5898312 -0.5898312 -0.5515 0.1578417 -0.1054719 -0.981811 0.4830775 -0.4830775 -0.7302164 0.6740623 -0.6740623 -0.3019806 0.2942289 -0.4403821 -0.8482009 0.4634236 -0.6935636 -0.5515 0.1342204 -0.1342204 -0.981811 0.2244941 -0.3359783 -0.9147008 0.3795587 -0.568041 -0.7302164 0.5296182 -0.7926267 -0.3019806 0.2026734 -0.4893032 -0.8482009 0.1546373 -0.3733024 -0.9147008 0.3191931 -0.7706534 -0.5515 0.1054719 -0.1578417 -0.981811 0.2614216 -0.6311838 -0.7302164 0.3647878 -0.8807337 -0.3019806 0.1033051 -0.5194556 -0.8482009 0.1627247 -0.8181097 -0.5515 0.07263404 -0.1753898 -0.981811 0.07882928 -0.3963134 -0.9147008 0.1332743 -0.6700644 -0.7302164 0.1859798 -0.9349651 -0.3019806 0 -0.5296182 -0.8482009 0 -0.8341624 -0.5515 0.03701895 -0.1861934 -0.981811 0 -0.4040651 -0.9147008 0 -0.6831874 -0.7302164 0 -0.9533067 -0.3019806 -0.1033051 -0.5194556 -0.8482009 -0.07882928 -0.3963134 -0.9147008 -0.1627247 -0.8181097 -0.5515 -0.03701895 -0.1861934 -0.981811 -0.1332743 -0.6700644 -0.7302164 -0.1859798 -0.9349651 -0.3019806 -0.2026734 -0.4893032 -0.8482009 -0.3191931 -0.7706534 -0.5515 -0.1546373 -0.3733024 -0.9147008 -0.2614216 -0.6311838 -0.7302164 -0.3647878 -0.8807337 -0.3019806 -0.2942289 -0.4403821 -0.8482009 -0.2244941 -0.3359783 -0.9147008 -0.4634236 -0.6935636 -0.5515 -0.1054719 -0.1578417 -0.981811 -0.3795587 -0.568041 -0.7302164 -0.5296182 -0.7926267 -0.3019806 -0.3744926 -0.3744926 -0.8482009 -0.2857143 -0.2857143 -0.9147008 -0.5898312 -0.5898312 -0.5515 -0.4830775 -0.4830775 -0.7302164 -0.6740928 -0.6740623 -0.3019806 -0.4403821 -0.2942289 -0.8482009 -0.3359783 -0.2244941 -0.9147008 -0.6935636 -0.4634236 -0.5515 -0.4742882 -0.4742882 0.7416303 -0.5577258 -0.3726615 0.7416303 -0.7926267 -0.5296182 -0.3019806 -0.1578417 -0.1054719 -0.981811 -0.568041 -0.3795587 -0.7302164 -0.4893032 -0.2026734 -0.8482009 -0.3733024 -0.1546373 -0.9147008 -0.7706534 -0.3191931 -0.5515 -0.6197088 -0.2566912 0.7416303 -0.8807337 -0.3647878 -0.3019806 -0.1753898 -0.07263404 -0.981811 -0.6311838 -0.2614216 -0.7302164 -0.5194556 -0.1033051 -0.8482009 -0.8181097 -0.1627247 -0.5515 -0.6578875 -0.1308633 0.7416303 -0.9349651 -0.1859798 -0.3019806 -0.3963134 -0.07882928 -0.9147008 -0.6700644 -0.1332743 -0.7302164 0.3726615 -0.5577258 0.7416303 -0.4186529 0.626545 0.6573687 -0.2883694 0.6961882 0.6573687 -0.7535325 0 0.6573687 -0.7390667 0.1470077 0.6573687 0.6578875 -0.1308633 0.7416303 -0.1470077 0.7390667 0.6573687 0.1308633 -0.6578875 0.7416303 -0.6961882 0.2883694 0.6573687 0.6197088 -0.2566912 0.7416303 0 0.7535325 0.6573687 0 -0.6707663 0.7416303 -0.626545 0.4186529 0.6573687 0.5577258 -0.3726615 0.7416303 0.1470077 0.7390667 0.6573687 -0.1308633 -0.6578875 0.7416303 -0.5328227 0.5328227 0.6573687 0.4742882 -0.4742882 0.7416303 0.2883694 0.6961882 0.6573687 -0.2566912 -0.6197088 0.7416303 -0.1898251 0 -0.981811 -0.7390667 -0.1470077 0.6573687 0.6707663 0 0.7416303 0.4186529 0.626545 0.6573687 0.6831874 0 0.7302164 0.8341624 0 0.5515 0.8181097 0.1627247 0.5515 0 0 1 0.04651015 0 0.9989013 0.04559463 0.009063959 0.9989013 0.5296182 0 0.8482009 0.6700644 0.1332743 0.7302164 0.9349651 0.1859798 0.3019806 0.8807337 0.3647878 0.3019806 0.6311838 0.2614216 0.7302164 0.5194556 0.1033051 0.8482009 0.7706534 0.3191931 0.5515 0.7926267 0.5296182 0.3019806 0.2623676 0.1086764 0.9588 0.2785424 0.05539107 0.9588 0.7390667 0.1470077 0.6573687 0.4893032 0.2026734 0.8482009 0.568041 0.3795587 0.7302164 0 0 0.9999695 0 0 1 0.4403821 0.2942289 0.8482009 0.04297006 0.01779228 0.9989013 0.2361217 0.1577807 0.9588 0.4830775 0.4830775 0.7302164 0.0386669 0.02581864 0.9989013 0.03286838 0.03286838 0.9989013 0.6935636 0.4634236 0.5515 0.6740928 0.6740623 0.3019806 0 0 1 0 0 1 0.626545 0.4186529 0.6573687 0.02581864 0.0386669 0.9989013 0.2008118 0.2008118 0.9588 0.5898312 0.5898312 0.5515 0.5296182 0.7926267 0.3019806 0.3744926 0.3744926 0.8482009 0.5328227 0.5328227 0.6573687 0.3795587 0.568041 0.7302164 0.4634236 0.6935636 0.5515 0.3647878 0.8807337 0.3019806 0.2942289 0.4403821 0.8482009 0.2614216 0.6311838 0.7302164 0 0 1 0.01779228 0.04297006 0.9989013 0.1577807 0.2361217 0.9588 0.1033051 0.5194556 0.8482009 0.2026734 0.4893032 0.8482009 0.1332743 0.6700644 0.7302164 0.3191931 0.7706534 0.5515 0.1086764 0.2623676 0.9588 0.05539107 0.2785424 0.9588 0.1859798 0.9349651 0.3019806 0.009063959 0.04559463 0.9989013 0 0.2840052 0.9588 0 0 1 0 0.5296182 0.8482009 0 0.9533067 0.3019806 0 0 1 0 0.04651015 0.9989013 0 0.6831874 0.7302164 0.1627247 0.8181097 0.5515 -0.1859798 0.9349651 0.3019806 0 0.8341624 0.5515 0 0 1 0 0 1 -0.1332743 0.6700644 0.7302164 -0.009063959 0.04559463 0.9989013 -0.1627247 0.8181097 0.5515 -0.3647878 0.8807337 0.3019806 -0.05539107 0.2785424 0.9588 -0.2614216 0.6311838 0.7302164 -0.2026734 0.4893032 0.8482009 -0.1033051 0.5194556 0.8482009 -0.3191931 0.7706534 0.5515 -0.5296182 0.7926267 0.3019806 -0.3795587 0.568041 0.7302164 0 0 1 -0.1577807 0.2361217 0.9588 -0.1086764 0.2623676 0.9588 -0.02581864 0.0386669 0.9989013 -0.01779228 0.04297006 0.9989013 -0.2942289 0.4403821 0.8482009 -0.4830775 0.4830775 0.7302164 0 0 1 -0.03286838 0.03286838 0.9989013 -0.4634236 0.6935636 0.5515 -0.6740623 0.6740623 0.3019806 -0.0386669 0.02581864 0.9989013 -0.2008118 0.2008118 0.9588 -0.5898312 0.5898312 0.5515 -0.7926267 0.5296182 0.3019806 -0.3744926 0.3744926 0.8482009 -0.568041 0.3795587 0.7302164 -0.6935636 0.4634236 0.5515 -0.8807337 0.3647878 0.3019806 -0.4403821 0.2942289 0.8482009 -0.6311838 0.2614216 0.7302164 0 0 1 0 0 1 -0.2361217 0.1577807 0.9588 -0.2623676 0.1086764 0.9588 -0.4893032 0.2026734 0.8482009 -0.6700644 0.1332743 0.7302164 -0.7706534 0.3191931 0.5515 -0.04559463 0.009063959 0.9989013 -0.04297006 0.01779228 0.9989013 -0.9349651 0.1859798 0.3019806 -0.5194556 0.1033051 0.8482009 -0.2785424 0.05539107 0.9588 -0.2840052 0 0.9588 0 0 0.9999695 0 0 1 -0.5296182 0 0.8482009 -0.6831874 0 0.7302164 -0.04651015 0 0.9989013 -0.8181097 0.1627247 0.5515 -0.9533067 0 0.3019806 -0.8341624 0 0.5515 -0.9349651 -0.1859798 0.3019806 0 0 1 0 0 1 -0.6700644 -0.1332743 0.7302164 -0.04559463 -0.009063959 0.9989013 -0.8181097 -0.1627247 0.5515 -0.8807337 -0.3647878 0.3019806 -0.5194556 -0.1033051 0.8482009 -0.6311838 -0.2614216 0.7302164 -0.4893032 -0.2026734 0.8482009 -0.7706534 -0.3191931 0.5515 -0.7926267 -0.5296182 0.3019806 -0.2785424 -0.05539107 0.9588 -0.6961882 -0.2883694 0.6573687 -0.568041 -0.3795587 0.7302164 -0.04297006 -0.01779228 0.9989013 -0.2361217 -0.1577807 0.9588 -0.2623676 -0.1086764 0.9588 -0.0386669 -0.02581864 0.9989013 -0.3744926 -0.3744926 0.8482009 -0.4403821 -0.2942289 0.8482009 0 0 1 0 0 1 -0.03286838 -0.03286838 0.9989013 -0.6935636 -0.4634236 0.5515 -0.6740928 -0.6740623 0.3019806 0 0 1 -0.626545 -0.4186529 0.6573687 -0.5328227 -0.5328227 0.6573687 -0.02581864 -0.0386669 0.9989013 -0.2008118 -0.2008118 0.9588 -0.5898312 -0.5898312 0.5515 -0.5296182 -0.7926267 0.3019806 -0.4186529 -0.626545 0.6573687 -0.2942289 -0.4403821 0.8482009 -0.4830775 -0.4830775 0.7302164 -0.4634236 -0.6935636 0.5515 -0.3647878 -0.8807337 0.3019806 -0.3795587 -0.568041 0.7302164 -0.2883694 -0.6961882 0.6573687 -0.2614216 -0.6311838 0.7302164 0 0 1 -0.1577807 -0.2361217 0.9588 -0.1086764 -0.2623676 0.9588 -0.2026734 -0.4893032 0.8482009 -0.1332743 -0.6700644 0.7302164 -0.3191931 -0.7706534 0.5515 -0.009063959 -0.04559463 0.9989013 -0.01779228 -0.04297006 0.9989013 -0.1859798 -0.9349651 0.3019806 -0.05539107 -0.2785424 0.9588 0 -0.2840052 0.9588 0 0 1 -0.1033051 -0.5194556 0.8482009 0 -0.5296182 0.8482009 -0.1470077 -0.7390667 0.6573687 0 -0.7535325 0.6573687 0 -0.6831874 0.7302164 0 0 1 0 -0.04651015 0.9989013 -0.1627247 -0.8181097 0.5515 0 -0.9533067 0.3019806 0.1470077 -0.7390667 0.6573687 0 -0.8341624 0.5515 0.1859798 -0.9349651 0.3019806 0 0 1 0 0 1 0.1332743 -0.6700644 0.7302164 0.009063959 -0.04559463 0.9989013 0.1627247 -0.8181097 0.5515 0.3647878 -0.8807337 0.3019806 0.05539107 -0.2785424 0.9588 0.2614216 -0.6311838 0.7302164 0.2026734 -0.4893032 0.8482009 0.1033051 -0.5194556 0.8482009 0.3191931 -0.7706534 0.5515 0.5296182 -0.7926267 0.3019806 0.3795587 -0.568041 0.7302164 0 0 1 0.02581864 -0.0386669 0.9989013 0.1577807 -0.2361217 0.9588 0.2008118 -0.2008118 0.9588 0.4634236 -0.6935636 0.5515 0.6740623 -0.6740928 0.3019806 0.2942289 -0.4403821 0.8482009 0.3744926 -0.3744926 0.8482009 0.4186529 -0.626545 0.6573687 0.5328227 -0.5328227 0.6573687 0.4830775 -0.4830775 0.7302164 0 0 1 0 0 1 0.03286838 -0.03286838 0.9989013 0.2361217 -0.1577807 0.9588 0.5898312 -0.5898312 0.5515 0.7926267 -0.5296182 0.3019806 0.626545 -0.4186529 0.6573687 0.568041 -0.3795587 0.7302164 0.0386669 -0.02581864 0.9989013 0.2623676 -0.1086764 0.9588 0.6935636 -0.4634236 0.5515 0.8807337 -0.3647878 0.3019806 0.4403821 -0.2942289 0.8482009 0.4893032 -0.2026734 0.8482009 0 0 1 0.04297006 -0.01779228 0.9989013 0.6311838 -0.2614216 0.7302164 0.04559463 -0.009063959 0.9989013 0.8181097 -0.1627247 0.5515 0.7706534 -0.3191931 0.5515 0.2785424 -0.05539107 0.9588 0.6961882 -0.2883694 0.6573687 0.7390667 -0.1470077 0.6573687 0.5194556 -0.1033051 0.8482009 0 0 1 0.6700644 -0.1332743 0.7302164 0 0 1 0.2840052 0 0.9588 0.9349651 -0.1859798 0.3019806 0.7535325 0 0.6573687 0.6961882 0.2883694 0.6573687 0.01779228 -0.04297006 0.9989013 0.1086764 -0.2623676 0.9588 0.2883694 -0.6961882 0.6573687 0.9533067 0 0.3019806 0 0 1 0 0 1 0 0 1 0 0 1 0 0 1 0 0 1 0 0 1 0 0 1 0 0 1 0 0 1 0 0 1 0 0 1 0 0 1 0.6578875 0.1308633 0.7416303 0.2566912 -0.6197088 0.7416303 -0.3726615 -0.5577258 0.7416303 0 -0.1898251 -0.981811 0 0 -1 0 0 -1 -0.07263404 0.1753898 -0.981811 0 0 -1 0 0 -1 0 0 -1 0 0 -1 0 0 -1 0 0 -1 0 0 -1 0 0 -1 0 0 -1 0 0 -1 0 0 -1 0 0 -1 0 0 -1 -0.1342204 -0.1342204 -0.981811 0 0 -1 0 0 -1 0 0 -1 0 0 -1 0 0 -1 -0.07263404 -0.1753898 -0.981811 0 0 -1 0 0 -1 0 0 -1 0 0 -1 0 0 -1 0 0.1898251 -0.981811 0 0 -1 -0.1753898 0.07263404 -0.981811 0 0 -1 0 0 -1 0 0 -1 0 0 -1 -0.1861934 -0.03701895 -0.981811 0 0 -1 0 0 -1 0 0 -1 0.1342204 0.1342204 -0.981811</float_array>
          <technique_common>
            <accessor source="#Sphere-mesh-normals-array" count="526" stride="3">
              <param name="X" type="float"/>
              <param name="Y" type="float"/>
              <param name="Z" type="float"/>
            </accessor>
          </technique_common>
        </source>
        <vertices id="Sphere-mesh-vertices">
          <input semantic="POSITION" source="#Sphere-mesh-positions"/>
        </vertices>
        <polylist material="Bowl-material" count="1048">
          <input semantic="VERTEX" source="#Sphere-mesh-vertices" offset="0"/>
          <input semantic="NORMAL" source="#Sphere-mesh-normals" offset="1"/>
          <vcount>3 3 3 3 3 3 3 3 3 3 3 3 3 3 3 3 3 3 3 3 3 3 3 3 3 3 3 3 3 3 3 3 3 3 3 3 3 3 3 3 3 3 3 3 3 3 3 3 3 3 3 3 3 3 3 3 3 3 3 3 3 3 3 3 3 3 3 3 3 3 3 3 3 3 3 3 3 3 3 3 3 3 3 3 3 3 3 3 3 3 3 3 3 3 3 3 3 3 3 3 3 3 3 3 3 3 3 3 3 3 3 3 3 3 3 3 3 3 3 3 3 3 3 3 3 3 3 3 3 3 3 3 3 3 3 3 3 3 3 3 3 3 3 3 3 3 3 3 3 3 3 3 3 3 3 3 3 3 3 3 3 3 3 3 3 3 3 3 3 3 3 3 3 3 3 3 3 3 3 3 3 3 3 3 3 3 3 3 3 3 3 3 3 3 3 3 3 3 3 3 3 3 3 3 3 3 3 3 3 3 3 3 3 3 3 3 3 3 3 3 3 3 3 3 3 3 3 3 3 3 3 3 3 3 3 3 3 3 3 3 3 3 3 3 3 3 3 3 3 3 3 3 3 3 3 3 3 3 3 3 3 3 3 3 3 3 3 3 3 3 3 3 3 3 3 3 3 3 3 3 3 3 3 3 3 3 3 3 3 3 3 3 3 3 3 3 3 3 3 3 3 3 3 3 3 3 3 3 3 3 3 3 3 3 3 3 3 3 3 3 3 3 3 3 3 3 3 3 3 3 3 3 3 3 3 3 3 3 3 3 3 3 3 3 3 3 3 3 3 3 3 3 3 3 3 3 3 3 3 3 3 3 3 3 3 3 3 3 3 3 3 3 3 3 3 3 3 3 3 3 3 3 3 3 3 3 3 3 3 3 3 3 3 3 3 3 3 3 3 3 3 3 3 3 3 3 3 3 3 3 3 3 3 3 3 3 3 3 3 3 3 3 3 3 3 3 3 3 3 3 3 3 3 3 3 3 3 3 3 3 3 3 3 3 3 3 3 3 3 3 3 3 3 3 3 3 3 3 3 3 3 3 3 3 3 3 3 3 3 3 3 3 3 3 3 3 3 3 3 3 3 3 3 3 3 3 3 3 3 3 3 3 3 3 3 3 3 3 3 3 3 3 3 3 3 3 3 3 3 3 3 3 3 3 3 3 3 3 3 3 3 3 3 3 3 3 3 3 3 3 3 3 3 3 3 3 3 3 3 3 3 3 3 3 3 3 3 3 3 3 3 3 3 3 3 3 3 3 3 3 3 3 3 3 3 3 3 3 3 3 3 3 3 3 3 3 3 3 3 3 3 3 3 3 3 3 3 3 3 3 3 3 3 3 3 3 3 3 3 3 3 3 3 3 3 3 3 3 3 3 3 3 3 3 3 3 3 3 3 3 3 3 3 3 3 3 3 3 3 3 3 3 3 3 3 3 3 3 3 3 3 3 3 3 3 3 3 3 3 3 3 3 3 3 3 3 3 3 3 3 3 3 3 3 3 3 3 3 3 3 3 3 3 3 3 3 3 3 3 3 3 3 3 3 3 3 3 3 3 3 3 3 3 3 3 3 3 3 3 3 3 3 3 3 3 3 3 3 3 3 3 3 3 3 3 3 3 3 3 3 3 3 3 3 3 3 3 3 3 3 3 3 3 3 3 3 3 3 3 3 3 3 3 3 3 3 3 3 3 3 3 3 3 3 3 3 3 3 3 3 3 3 3 3 3 3 3 3 3 3 3 3 3 3 3 3 3 3 3 3 3 3 3 3 3 3 3 3 3 3 3 3 3 3 3 3 3 3 3 3 3 3 3 3 3 3 3 3 3 3 3 3 3 3 3 3 3 3 3 3 3 3 3 3 3 3 3 3 3 3 3 3 3 3 3 3 3 3 3 3 3 3 3 3 3 3 3 3 3 3 3 3 3 3 3 3 3 3 3 3 3 3 3 3 3 3 3 3 3 3 3 3 3 3 3 3 3 3 3 3 3 3 3 3 3 3 3 3 3 3 3 3 3 3 3 3 3 3 3 3 3 3 3 3 3 3 3 3 3 3 3 3 3 3 3 3 3 3 3 3 3 3 3 3 3 3 3 3 3 3 3 3 3 3 3 3 3 3 3 3 3 3 3 3 3 3 3 3 3 3 3 3 3 3 3 3 3 3 3 3 3 3 3 3 3 3 3 3 3 3 3 3 3 3 3 3 3 3 3 3 3 3 3 3 3 3 3 3 3 3 3 3 3 3 3 3 3 3 3 3 3 3 3 3 3 3 3 3 3 3 3 3 3 3 3 3 3 3 3 3 3 3 3 3 3 3 3 3 3 3 3 3 3 3 3 3 3 3 3 3 3 3 3 3 3 3 3 3 </vcount>
          <p>1 0 0 1 9 2 5 3 14 4 15 5 4 6 3 7 12 8 1 0 10 9 11 10 5 3 4 6 13 11 3 7 2 12 11 10 14 4 13 11 21 13 11 10 19 14 20 15 10 9 9 2 17 16 15 5 14 4 22 17 12 8 20 15 21 13 10 9 18 18 19 14 21 13 29 19 30 20 20 15 19 14 27 21 17 16 25 22 26 23 22 17 30 20 31 24 21 13 20 15 28 25 18 18 26 23 27 21 30 20 29 19 37 26 28 25 27 21 35 27 25 22 33 28 34 29 30 20 38 30 39 31 29 19 28 25 36 32 26 23 34 29 35 27 38 30 37 26 45 33 36 32 35 27 43 34 33 28 41 35 42 36 38 30 46 37 47 38 37 26 36 32 44 39 35 27 34 29 42 36 46 37 45 33 53 40 44 39 43 34 51 41 42 36 41 35 49 42 47 38 46 37 54 43 44 39 52 44 53 40 42 36 50 45 51 41 54 43 53 40 61 46 52 44 51 41 59 47 50 45 49 42 57 48 54 43 62 49 63 50 53 40 52 44 60 51 50 45 58 52 59 47 61 46 68 53 69 54 60 51 59 47 66 55 58 52 57 48 64 56 63 50 62 49 69 54 60 51 67 57 68 53 58 52 65 58 66 55 69 54 68 53 76 59 67 57 66 55 74 60 64 56 72 61 73 62 69 54 77 63 78 64 68 53 67 57 75 65 65 58 73 62 74 60 77 63 76 59 84 66 75 65 74 60 82 67 73 62 72 61 80 68 78 64 77 63 85 69 75 65 83 70 84 66 73 62 81 71 82 67 85 69 84 66 92 72 83 70 82 67 90 73 81 71 80 68 88 74 86 75 85 69 93 76 83 70 91 77 92 72 81 71 89 78 90 73 93 76 92 72 100 79 91 77 90 73 98 80 89 78 88 74 96 81 94 82 93 76 101 83 91 77 99 84 100 79 89 78 97 85 98 80 100 79 108 86 109 87 99 84 98 80 106 88 97 85 96 81 104 89 101 83 109 87 110 90 99 84 107 91 108 86 97 85 105 92 106 88 109 87 108 86 116 93 107 91 106 88 114 94 105 92 104 89 112 95 109 87 117 96 118 97 108 86 107 91 115 98 105 92 113 99 114 94 117 96 116 93 123 100 115 98 114 94 121 101 117 96 124 102 125 103 115 98 122 104 123 100 113 99 120 105 121 101 123 100 129 106 130 107 122 104 121 101 127 108 125 103 124 102 130 107 123 100 122 104 128 109 120 105 126 110 127 108 130 107 129 106 135 111 128 109 127 108 133 112 131 113 130 107 136 114 128 109 134 115 135 111 126 110 132 116 133 112 135 111 141 117 142 118 134 115 133 112 139 119 137 120 136 114 142 118 134 115 140 121 141 117 132 116 138 122 139 119 142 118 141 117 147 123 140 121 139 119 145 124 143 125 142 118 148 126 140 121 146 127 147 123 138 122 144 128 145 124 147 123 153 129 154 130 146 127 145 124 151 131 149 132 148 126 154 130 146 127 152 133 153 129 144 128 150 134 151 131 154 130 153 129 159 135 152 133 151 131 157 136 155 137 154 130 160 138 152 133 158 139 159 135 150 134 156 140 157 136 159 135 165 141 166 142 158 139 157 136 163 143 161 144 160 138 166 142 158 139 164 145 165 141 156 140 162 146 163 143 166 142 165 141 171 147 164 145 163 143 169 148 167 149 166 142 172 150 164 145 170 151 171 147 162 146 168 152 169 148 172 150 171 147 177 153 170 151 169 148 175 154 173 155 172 150 178 156 171 147 170 151 176 157 168 152 174 158 175 154 177 153 183 159 184 160 176 157 175 154 181 161 178 156 184 160 185 162 176 157 182 163 183 159 174 158 180 164 181 161 184 160 183 159 189 165 182 163 181 161 187 166 185 162 184 160 190 167 183 159 182 163 188 168 180 164 186 169 187 166 189 165 195 170 196 171 188 168 187 166 193 172 190 167 196 171 197 173 189 165 188 168 194 174 186 169 192 175 193 172 195 170 202 176 203 177 194 174 193 172 200 178 197 173 196 171 203 177 195 170 194 174 201 179 192 175 199 180 200 178 202 176 209 181 210 182 201 179 200 178 207 183 198 184 205 185 206 186 203 177 210 182 211 187 201 179 208 188 209 181 199 180 206 186 207 183 209 181 216 189 217 190 208 188 207 183 214 191 205 185 212 192 213 193 210 182 217 190 218 194 208 188 215 195 216 189 206 186 213 193 214 191 217 190 216 189 223 196 215 195 214 191 221 197 212 192 219 198 220 199 218 194 217 190 224 200 215 195 222 201 223 196 213 193 220 199 221 197 56 202 281 203 273 204 321 205 313 206 95 207 273 204 265 208 40 209 313 206 305 210 87 211 265 208 257 212 32 213 305 210 297 214 79 215 257 212 249 216 24 217 297 214 289 218 71 219 249 216 241 220 16 221 223 196 4 6 5 3 221 197 2 12 3 7 219 198 0 1 1 0 71 219 289 218 281 203 224 200 5 3 6 222 329 223 321 205 103 224 222 201 3 7 4 6 220 199 1 0 2 12 16 221 241 220 233 225 446 226 447 227 476 228 442 229 443 230 480 231 445 232 446 226 477 233 476 228 475 234 467 235 469 236 477 233 476 228 478 237 477 233 469 236 468 238 467 235 459 239 471 240 479 241 478 237 467 235 475 234 474 242 470 243 469 236 461 244 473 245 481 246 480 231 471 240 470 243 462 247 472 248 471 240 463 249 462 247 461 244 453 250 473 245 472 248 464 251 461 244 469 236 468 238 456 252 464 251 463 249 460 253 459 239 451 254 457 255 465 256 464 251 451 254 459 239 458 257 227 258 456 252 455 259 452 260 451 254 232 261 463 249 462 247 454 262 232 261 451 254 450 263 454 262 453 250 230 264 231 265 232 261 240 266 230 264 453 250 452 260 232 261 233 225 241 220 229 267 230 264 238 268 226 269 457 255 456 252 238 268 230 264 231 265 235 270 227 258 228 271 245 272 237 273 238 268 228 271 229 267 237 273 246 274 238 268 239 275 235 270 236 276 244 277 239 275 240 266 248 278 244 277 236 276 237 273 240 266 241 220 249 216 243 279 244 277 252 280 234 281 235 270 243 279 244 277 245 272 253 282 256 283 248 278 249 216 253 282 245 272 246 274 242 284 243 279 251 285 254 286 246 274 247 287 264 288 256 283 257 212 255 289 256 283 264 288 258 290 250 291 251 285 262 292 254 286 255 289 259 293 251 285 252 280 263 294 264 288 272 295 260 296 252 280 253 282 270 297 262 292 263 294 269 298 261 299 262 292 271 300 272 295 280 301 260 296 261 299 269 298 264 288 265 208 273 204 269 298 270 297 278 302 266 303 258 290 259 293 276 304 268 305 269 298 275 306 267 307 268 305 277 308 278 302 286 309 274 310 266 303 267 307 278 302 270 297 271 300 283 311 275 306 276 304 279 312 280 301 288 313 274 310 275 306 283 311 280 301 281 203 289 218 291 314 283 311 284 315 287 316 288 313 296 317 284 315 276 304 277 308 288 313 289 218 297 214 285 318 286 309 294 319 295 320 296 317 304 321 294 319 286 309 287 316 296 317 297 214 305 210 293 322 294 319 302 323 290 324 282 325 283 311 302 323 294 319 295 320 291 314 292 326 300 327 301 328 302 323 310 329 292 326 293 322 301 328 310 329 302 323 303 330 307 331 299 332 300 327 303 330 304 321 312 333 300 327 301 328 309 334 304 321 305 210 313 206 307 331 308 335 316 336 306 337 298 338 299 332 308 335 309 334 317 339 312 333 313 206 321 205 309 334 310 329 318 340 306 337 307 331 315 341 318 340 310 329 311 342 320 343 321 205 329 223 319 344 320 343 328 345 322 346 314 347 315 341 326 348 318 340 319 344 323 349 315 341 316 336 327 350 328 345 336 351 316 336 317 339 325 352 334 353 326 348 327 350 333 354 325 352 326 348 335 355 336 351 344 356 324 357 325 352 333 354 328 345 329 223 337 358 333 354 334 353 342 359 322 346 323 349 331 360 340 361 332 362 333 354 339 363 331 360 332 362 349 364 341 365 342 359 338 366 330 367 331 360 342 359 334 353 335 355 347 368 339 363 340 361 343 369 344 356 352 370 346 371 338 366 339 363 344 356 345 372 353 373 355 374 347 368 348 375 351 376 352 370 360 377 340 361 341 365 349 364 352 370 353 373 361 378 357 379 349 364 350 380 359 381 360 377 368 382 358 383 350 380 351 376 360 377 361 378 369 384 357 379 358 383 366 385 354 386 346 371 347 368 366 385 358 383 359 381 355 374 356 387 364 388 365 389 366 385 374 390 364 388 356 387 357 379 374 390 366 385 367 391 371 392 363 393 364 388 367 391 368 382 376 394 372 395 364 388 365 389 376 394 368 382 369 384 371 392 372 395 380 396 362 397 363 393 371 392 372 395 373 398 381 399 376 394 377 400 385 401 373 398 374 390 382 402 370 403 371 392 379 404 382 402 374 390 375 405 384 406 385 401 393 407 383 408 384 406 392 409 386 410 378 411 379 404 390 412 382 402 383 408 387 413 379 404 380 396 391 414 392 409 400 415 388 416 380 396 381 399 398 417 390 412 391 414 397 418 389 419 390 412 399 420 400 415 408 421 388 416 389 419 397 418 400 415 392 409 393 407 397 418 398 417 406 422 394 423 386 410 387 413 403 424 404 425 412 426 407 427 408 421 416 428 404 425 405 429 413 430 408 421 409 431 417 432 405 429 406 422 414 433 410 434 402 435 403 424 414 433 406 422 407 427 411 436 412 426 420 437 415 438 416 428 424 439 420 437 412 426 413 430 416 428 417 432 425 440 413 430 414 433 422 441 410 434 411 436 419 442 422 441 414 433 415 438 419 442 420 437 428 443 423 444 424 439 432 445 420 437 421 446 429 447 432 445 424 439 425 440 429 447 421 446 422 441 418 448 419 442 427 449 430 450 422 441 423 444 435 451 427 449 428 443 439 452 431 453 432 445 436 454 428 443 429 447 432 445 433 455 441 456 437 457 429 447 430 450 426 458 427 449 435 451 438 459 430 450 431 453 442 229 434 460 435 451 438 459 439 452 447 227 435 451 436 454 444 461 447 227 439 452 440 462 436 454 437 457 445 232 440 462 441 456 449 463 445 232 437 457 438 459 443 230 444 461 479 241 472 248 480 231 479 241 459 239 467 235 466 464 453 250 461 244 460 253 455 259 454 262 229 267 234 281 226 269 227 258 247 287 248 278 256 283 253 282 254 286 262 292 267 307 259 293 260 296 280 301 272 295 273 204 286 309 278 302 279 312 284 315 285 318 293 322 290 324 291 314 299 332 311 342 312 333 320 343 317 339 318 340 326 348 323 349 324 357 332 362 336 351 337 358 345 372 350 380 342 359 343 369 356 387 348 375 349 364 362 397 354 386 355 374 375 405 376 394 384 406 389 419 381 399 382 402 395 465 387 413 388 416 395 465 396 466 404 425 408 421 400 415 401 467 406 422 398 417 399 420 396 466 397 418 405 429 394 423 395 465 403 424 444 461 445 232 478 237 447 227 448 468 475 234 448 468 449 463 474 242 346 371 354 386 515 469 330 367 338 366 119 470 354 386 362 397 516 471 338 366 346 371 7 472 370 403 378 411 518 473 282 325 516 471 517 474 519 475 520 476 250 291 266 303 518 473 519 475 274 310 517 474 518 473 519 475 386 410 394 423 378 411 386 410 519 475 521 477 402 435 410 434 520 476 521 477 242 284 523 478 524 479 457 255 522 480 523 478 226 269 521 477 522 480 234 281 522 480 410 434 418 448 524 479 525 481 465 256 523 478 418 448 426 458 525 481 434 460 442 229 362 397 370 403 517 474 520 476 394 423 402 435 525 481 481 246 473 245 298 338 7 472 515 469 314 347 322 346 119 470 524 479 426 458 434 460 290 324 515 469 516 471 306 337 119 470 7 472 113 99 112 95 111 482 111 482 103 224 126 110 126 110 103 224 95 207 95 207 87 211 138 122 87 211 79 215 144 128 79 215 71 219 150 134 71 219 56 202 156 140 56 202 48 483 162 146 162 146 48 483 40 209 168 152 40 209 32 213 174 158 32 213 24 217 180 164 24 217 16 221 16 221 8 484 192 175 8 484 198 184 199 180 369 384 361 378 88 74 17 16 433 455 425 440 8 484 233 225 450 263 41 35 409 431 401 467 361 378 353 373 96 81 198 184 450 263 458 257 401 467 393 407 57 48 219 198 474 242 449 463 212 192 466 464 474 242 96 81 353 373 345 372 205 185 458 257 466 464 393 407 385 401 64 56 104 89 345 372 337 358 425 440 417 432 33 28 64 56 385 401 377 400 9 2 441 456 433 455 337 358 329 223 111 482 377 400 369 384 80 68 449 463 441 456 9 2 417 432 409 431 41 35 179 485 506 486 505 487 55 488 488 489 487 490 167 149 504 491 503 492 94 82 493 493 492 494 211 187 511 495 510 496 502 497 501 498 149 132 484 499 483 500 15 5 487 490 486 501 39 31 204 502 510 496 509 503 143 125 500 504 499 505 492 494 491 506 78 64 509 503 508 507 191 508 39 31 486 501 485 509 131 113 498 510 497 511 185 162 507 512 506 486 491 506 490 513 70 514 218 194 512 515 511 495 505 487 504 491 167 149 485 509 484 499 23 516 496 517 495 518 110 90 482 519 513 520 225 521 503 492 502 497 155 137 70 514 490 513 489 522 149 132 501 498 500 504 15 5 483 500 482 519 110 90 495 518 494 523 137 120 499 505 498 510 63 50 489 522 488 489 513 520 512 515 218 194 191 508 508 507 507 512 494 523 493 493 94 82 497 511 496 517 118 97 482 519 514 524 513 520 503 492 514 524 502 497 492 494 514 524 491 506 512 515 514 524 511 495 501 498 514 524 500 504 490 513 514 524 489 522 510 496 514 524 509 503 499 505 514 524 498 510 488 489 514 524 487 490 508 507 514 524 507 512 486 501 514 524 485 509 497 511 514 524 496 517 506 486 514 524 505 487 484 499 514 524 483 500 495 518 514 524 494 523 504 491 514 524 503 492 493 493 514 524 492 494 513 520 514 524 512 515 502 497 514 524 501 498 491 506 514 524 490 513 511 495 514 524 510 496 500 504 514 524 499 505 489 522 514 524 488 489 509 503 514 524 508 507 487 490 514 524 486 501 498 510 514 524 497 511 507 512 514 524 506 486 485 509 514 524 484 499 496 517 514 524 495 518 505 487 514 524 504 491 483 500 514 524 482 519 494 523 514 524 493 493 10 9 1 0 9 2 6 222 5 3 15 5 13 11 4 6 12 8 2 12 1 0 11 10 14 4 5 3 13 11 12 8 3 7 11 10 22 17 14 4 21 13 12 8 11 10 20 15 18 18 10 9 17 16 23 516 15 5 22 17 13 11 12 8 21 13 11 10 10 9 19 14 22 17 21 13 30 20 28 25 20 15 27 21 18 18 17 16 26 23 23 516 22 17 31 24 29 19 21 13 28 25 19 14 18 18 27 21 38 30 30 20 37 26 36 32 28 25 35 27 26 23 25 22 34 29 31 24 30 20 39 31 37 26 29 19 36 32 27 21 26 23 35 27 46 37 38 30 45 33 44 39 36 32 43 34 34 29 33 28 42 36 39 31 38 30 47 38 45 33 37 26 44 39 43 34 35 27 42 36 54 43 46 37 53 40 52 44 44 39 51 41 50 45 42 36 49 42 55 488 47 38 54 43 45 33 44 39 53 40 43 34 42 36 51 41 62 49 54 43 61 46 60 51 52 44 59 47 58 52 50 45 57 48 55 488 54 43 63 50 61 46 53 40 60 51 51 41 50 45 59 47 62 49 61 46 69 54 67 57 60 51 66 55 65 58 58 52 64 56 70 514 63 50 69 54 61 46 60 51 68 53 59 47 58 52 66 55 77 63 69 54 76 59 75 65 67 57 74 60 65 58 64 56 73 62 70 514 69 54 78 64 76 59 68 53 75 65 66 55 65 58 74 60 85 69 77 63 84 66 83 70 75 65 82 67 81 71 73 62 80 68 86 75 78 64 85 69 76 59 75 65 84 66 74 60 73 62 82 67 93 76 85 69 92 72 91 77 83 70 90 73 89 78 81 71 88 74 94 82 86 75 93 76 84 66 83 70 92 72 82 67 81 71 90 73 101 83 93 76 100 79 99 84 91 77 98 80 97 85 89 78 96 81 102 525 94 82 101 83 92 72 91 77 100 79 90 73 89 78 98 80 101 83 100 79 109 87 107 91 99 84 106 88 105 92 97 85 104 89 102 525 101 83 110 90 100 79 99 84 108 86 98 80 97 85 106 88 117 96 109 87 116 93 115 98 107 91 114 94 113 99 105 92 112 95 110 90 109 87 118 97 116 93 108 86 115 98 106 88 105 92 114 94 124 102 117 96 123 100 122 104 115 98 121 101 118 97 117 96 125 103 116 93 115 98 123 100 114 94 113 99 121 101 124 102 123 100 130 107 128 109 122 104 127 108 131 113 125 103 130 107 129 106 123 100 128 109 121 101 120 105 127 108 136 114 130 107 135 111 134 115 128 109 133 112 137 120 131 113 136 114 129 106 128 109 135 111 127 108 126 110 133 112 136 114 135 111 142 118 140 121 134 115 139 119 143 125 137 120 142 118 135 111 134 115 141 117 133 112 132 116 139 119 148 126 142 118 147 123 146 127 140 121 145 124 149 132 143 125 148 126 141 117 140 121 147 123 139 119 138 122 145 124 148 126 147 123 154 130 152 133 146 127 151 131 155 137 149 132 154 130 147 123 146 127 153 129 145 124 144 128 151 131 160 138 154 130 159 135 158 139 152 133 157 136 161 144 155 137 160 138 153 129 152 133 159 135 151 131 150 134 157 136 160 138 159 135 166 142 164 145 158 139 163 143 167 149 161 144 166 142 159 135 158 139 165 141 157 136 156 140 163 143 172 150 166 142 171 147 170 151 164 145 169 148 173 155 167 149 172 150 165 141 164 145 171 147 163 143 162 146 169 148 178 156 172 150 177 153 176 157 170 151 175 154 179 485 173 155 178 156 177 153 171 147 176 157 169 148 168 152 175 154 178 156 177 153 184 160 182 163 176 157 181 161 179 485 178 156 185 162 177 153 176 157 183 159 175 154 174 158 181 161 190 167 184 160 189 165 188 168 182 163 187 166 191 508 185 162 190 167 189 165 183 159 188 168 181 161 180 164 187 166 190 167 189 165 196 171 194 174 188 168 193 172 191 508 190 167 197 173 195 170 189 165 194 174 187 166 186 169 193 172 196 171 195 170 203 177 201 179 194 174 200 178 204 502 197 173 203 177 202 176 195 170 201 179 193 172 192 175 200 178 203 177 202 176 210 182 208 188 201 179 207 183 199 180 198 184 206 186 204 502 203 177 211 187 202 176 201 179 209 181 200 178 199 180 207 183 210 182 209 181 217 190 215 195 208 188 214 191 206 186 205 185 213 193 211 187 210 182 218 194 209 181 208 188 216 189 207 183 206 186 214 191 224 200 217 190 223 196 222 201 215 195 221 197 213 193 212 192 220 199 225 521 218 194 224 200 216 189 215 195 223 196 214 191 213 193 221 197 48 483 56 202 273 204 103 224 321 205 95 207 48 483 273 204 40 209 95 207 313 206 87 211 40 209 265 208 32 213 87 211 305 210 79 215 32 213 257 212 24 217 79 215 297 214 71 219 24 217 249 216 16 221 224 200 223 196 5 3 222 201 221 197 3 7 220 199 219 198 1 0 56 202 71 219 281 203 225 521 224 200 6 222 111 482 329 223 103 224 223 196 222 201 4 6 221 197 220 199 2 12 8 484 16 221 233 225 477 233 446 226 476 228 481 246 442 229 480 231 478 237 445 232 477 233 468 238 476 228 467 235 468 238 469 236 476 228 470 243 478 237 469 236 460 253 468 238 459 239 470 243 471 240 478 237 466 464 467 235 474 242 462 247 470 243 461 244 472 248 473 245 480 231 463 249 471 240 462 247 464 251 472 248 463 249 454 262 462 247 453 250 465 256 473 245 464 251 460 253 461 244 468 238 455 259 456 252 463 249 452 260 460 253 451 254 456 252 457 255 464 251 450 263 451 254 458 257 228 271 227 258 455 259 231 265 452 260 232 261 455 259 463 249 454 262 233 225 232 261 450 263 229 267 454 262 230 264 239 275 231 265 240 266 231 265 230 264 452 260 240 266 232 261 241 220 237 273 229 267 238 268 227 258 226 269 456 252 239 275 238 268 231 265 236 276 235 270 228 271 246 274 245 272 238 268 236 276 228 271 237 273 247 287 246 274 239 275 243 279 235 270 244 277 247 287 239 275 248 278 245 272 244 277 237 273 248 278 240 266 249 216 251 285 243 279 252 280 242 284 234 281 243 279 252 280 244 277 253 282 257 212 256 283 249 216 254 286 253 282 246 274 250 291 242 284 251 285 255 289 254 286 247 287 265 208 264 288 257 212 263 294 255 289 264 288 259 293 258 290 251 285 263 294 262 292 255 289 260 296 259 293 252 280 271 300 263 294 272 295 261 299 260 296 253 282 271 300 270 297 263 294 270 297 269 298 262 292 279 312 271 300 280 301 268 305 260 296 269 298 272 295 264 288 273 204 277 308 269 298 278 302 267 307 266 303 259 293 277 308 276 304 269 298 276 304 275 306 268 305 285 318 277 308 286 309 275 306 274 310 267 307 279 312 278 302 271 300 284 315 283 311 276 304 287 316 279 312 288 313 282 325 274 310 283 311 288 313 280 301 289 218 292 326 291 314 284 315 295 320 287 316 296 317 285 318 284 315 277 308 296 317 288 313 297 214 293 322 285 318 294 319 303 330 295 320 304 321 295 320 294 319 287 316 304 321 296 317 305 210 301 328 293 322 302 323 291 314 290 324 283 311 303 330 302 323 295 320 299 332 291 314 300 327 309 334 301 328 310 329 300 327 292 326 301 328 311 342 310 329 303 330 308 335 307 331 300 327 311 342 303 330 312 333 308 335 300 327 309 334 312 333 304 321 313 206 315 341 307 331 316 336 307 331 306 337 299 332 316 336 308 335 317 339 320 343 312 333 321 205 317 339 309 334 318 340 314 347 306 337 315 341 319 344 318 340 311 342 328 345 320 343 329 223 327 350 319 344 328 345 323 349 322 346 315 341 327 350 326 348 319 344 324 357 323 349 316 336 335 355 327 350 336 351 324 357 316 336 325 352 335 355 334 353 327 350 334 353 333 354 326 348 343 369 335 355 344 356 332 362 324 357 333 354 336 351 328 345 337 358 341 365 333 354 342 359 330 367 322 346 331 360 341 365 340 361 333 354 340 361 339 363 332 362 350 380 349 364 342 359 339 363 338 366 331 360 343 369 342 359 335 355 348 375 347 368 340 361 351 376 343 369 352 370 347 368 346 371 339 363 352 370 344 356 353 373 356 387 355 374 348 375 359 381 351 376 360 377 348 375 340 361 349 364 360 377 352 370 361 378 358 383 357 379 350 380 367 391 359 381 368 382 359 381 358 383 351 376 368 382 360 377 369 384 365 389 357 379 366 385 355 374 354 386 347 368 367 391 366 385 359 381 363 393 355 374 364 388 373 398 365 389 374 390 365 389 364 388 357 379 375 405 374 390 367 391 372 395 371 392 364 388 375 405 367 391 376 394 373 398 372 395 365 389 377 400 376 394 369 384 379 404 371 392 380 396 370 403 362 397 371 392 380 396 372 395 381 399 384 406 376 394 385 401 381 399 373 398 382 402 378 411 370 403 379 404 383 408 382 402 375 405 392 409 384 406 393 407 391 414 383 408 392 409 387 413 386 410 379 404 391 414 390 412 383 408 388 416 387 413 380 396 399 420 391 414 400 415 389 419 388 416 381 399 399 420 398 417 391 414 398 417 397 418 390 412 407 427 399 420 408 421 396 466 388 416 397 418 401 467 400 415 393 407 405 429 397 418 406 422 395 465 394 423 387 413 411 436 403 424 412 426 415 438 407 427 416 428 412 426 404 425 413 430 416 428 408 421 417 432 413 430 405 429 414 433 411 436 410 434 403 424 415 438 414 433 407 427 419 442 411 436 420 437 423 444 415 438 424 439 421 446 420 437 413 430 424 439 416 428 425 440 421 446 413 430 422 441 418 448 410 434 419 442 423 444 422 441 415 438 427 449 419 442 428 443 431 453 423 444 432 445 428 443 420 437 429 447 433 455 432 445 425 440 430 450 429 447 422 441 426 458 418 448 427 449 431 453 430 450 423 444 436 454 435 451 428 443 440 462 439 452 432 445 437 457 436 454 429 447 440 462 432 445 441 456 438 459 437 457 430 450 434 460 426 458 435 451 439 452 438 459 431 453 443 230 442 229 435 451 446 226 438 459 447 227 443 230 435 451 444 461 448 468 447 227 440 462 444 461 436 454 445 232 448 468 440 462 449 463 446 226 445 232 438 459 480 231 443 230 479 241 471 240 472 248 479 241 458 257 459 239 466 464 452 260 453 250 460 253 228 271 455 259 229 267 235 270 234 281 227 258 255 289 247 287 256 283 261 299 253 282 262 292 268 305 267 307 260 296 281 203 280 301 273 204 287 316 286 309 279 312 292 326 284 315 293 322 298 338 290 324 299 332 319 344 311 342 320 343 325 352 317 339 326 348 331 360 323 349 332 362 344 356 336 351 345 372 351 376 350 380 343 369 357 379 356 387 349 364 363 393 362 397 355 374 383 408 375 405 384 406 390 412 389 419 382 402 396 466 395 465 388 416 403 424 395 465 404 425 409 431 408 421 401 467 407 427 406 422 399 420 404 425 396 466 405 429 402 435 394 423 403 424 479 241 444 461 478 237 476 228 447 227 475 234 475 234 448 468 474 242 7 472 346 371 515 469 322 346 330 367 119 470 515 469 354 386 516 471 119 470 338 366 7 472 517 474 370 403 518 473 274 310 282 325 517 474 258 290 519 475 250 291 258 290 266 303 519 475 266 303 274 310 518 473 520 476 519 475 394 423 518 473 378 411 519 475 522 480 521 477 410 434 250 291 520 476 242 284 226 269 523 478 457 255 234 281 522 480 226 269 242 284 521 477 234 281 523 478 522 480 418 448 457 255 524 479 465 256 524 479 523 478 426 458 481 246 525 481 442 229 516 471 362 397 517 474 521 477 520 476 402 435 465 256 525 481 473 245 290 324 298 338 515 469 306 337 314 347 119 470 525 481 524 479 434 460 282 325 290 324 516 471 298 338 306 337 7 472 120 105 113 99 111 482 120 105 111 482 126 110 132 116 126 110 95 207 132 116 95 207 138 122 138 122 87 211 144 128 144 128 79 215 150 134 150 134 71 219 156 140 156 140 56 202 162 146 168 152 162 146 40 209 174 158 168 152 32 213 180 164 174 158 24 217 186 169 180 164 16 221 186 169 16 221 192 175 192 175 8 484 199 180 80 68 369 384 88 74 25 22 17 16 425 440 198 184 8 484 450 263 49 42 41 35 401 467 88 74 361 378 96 81 205 185 198 184 458 257 49 42 401 467 57 48 0 1 219 198 449 463 219 198 212 192 474 242 104 89 96 81 345 372 212 192 205 185 466 464 57 48 393 407 64 56 112 95 104 89 337 358 25 22 425 440 33 28 72 61 64 56 377 400 17 16 9 2 433 455 112 95 337 358 111 482 72 61 377 400 80 68 0 1 449 463 9 2 33 28 417 432 41 35 173 155 179 485 505 487 47 38 55 488 487 490 161 144 167 149 503 492 86 75 94 82 492 494 204 502 211 187 510 496 155 137 502 497 149 132 23 516 484 499 15 5 47 38 487 490 39 31 197 173 204 502 509 503 137 120 143 125 499 505 86 75 492 494 78 64 197 173 509 503 191 508 31 24 39 31 485 509 125 103 131 113 497 511 179 485 185 162 506 486 78 64 491 506 70 514 211 187 218 194 511 495 173 155 505 487 167 149 31 24 485 509 23 516 118 97 496 517 110 90 6 222 482 519 225 521 161 144 503 492 155 137 63 50 70 514 489 522 143 125 149 132 500 504 6 222 15 5 482 519 102 525 110 90 494 523 131 113 137 120 498 510 55 488 63 50 488 489 225 521 513 520 218 194 185 162 191 508 507 512 102 525 494 523 94 82 125 103 497 511 118 97</p>
        </polylist>
      </mesh>
    </geometry>
  </library_geometries>
  <library_controllers/>
  <library_visual_scenes>
    <visual_scene id="Scene" name="Scene">
      <node id="LowResBowl" name="LowResBowl" type="NODE">
        <matrix sid="transform">1 0 0 0 0 1 0 0 0 0 1 0 0 0 0 1</matrix>
        <instance_geometry url="#Sphere-mesh">
          <bind_material>
            <technique_common>
              <instance_material symbol="Bowl-material" target="#Bowl-material"/>
            </technique_common>
          </bind_material>
        </instance_geometry>
      </node>
    </visual_scene>
  </library_visual_scenes>
  <scene>
    <instance_visual_scene url="#Scene"/>
  </scene>
</COLLADA>